[gd_scene format=3 uid="uid://bwfp1xvcgt5la"]

[node name="Control" type="Control"]
layout_mode = 3
anchors_preset = 15
anchor_right = 1.0
anchor_bottom = 1.0
grow_horizontal = 2
grow_vertical = 2

[node name="HScrollBar" type="HScrollBar" parent="."]
layout_mode = 0
offset_left = 160.0
offset_top = 144.0
offset_right = 1064.0
offset_bottom = 464.0

[node name="Control" type="Control" parent="HScrollBar"]
anchors_preset = 0
offset_right = 40.0
offset_bottom = 40.0

[node name="Control2" type="Control" parent="HScrollBar"]
layout_mode = 3
anchors_preset = 0
offset_right = 40.0
offset_bottom = 40.0

[node name="Control3" type="Control" parent="HScrollBar"]
layout_mode = 3
anchors_preset = 0
offset_right = 40.0
offset_bottom = 40.0

[node name="Control4" type="Control" parent="HScrollBar"]
layout_mode = 3
anchors_preset = 0
offset_right = 40.0
offset_bottom = 40.0

[node name="Control5" type="Control" parent="HScrollBar"]
layout_mode = 3
anchors_preset = 0
offset_right = 40.0
offset_bottom = 40.0

[node name="Control" type="Control" parent="HScrollBar/Control5"]
layout_mode = 3
anchors_preset = 0
offset_left = 24.0
offset_top = 184.0
offset_right = 64.0
offset_bottom = 224.0

[node name="Control" type="Control" parent="HScrollBar/Control5/Control"]
layout_mode = 3
anchors_preset = 0
offset_left = 16.0
offset_top = 104.0
offset_right = 56.0
offset_bottom = 144.0

[node name="Control" type="Control" parent="HScrollBar/Control5/Control/Control"]
layout_mode = 3
anchors_preset = 0
offset_left = 16.0
offset_top = 64.0
offset_right = 56.0
offset_bottom = 104.0
