[gd_resource type="Resource" script_class="product_resource" load_steps=2 format=3 uid="uid://d0vq8m1pcai8h"]

[ext_resource type="Script" path="res://resources/scripts/product_resource.gd" id="1_2bwv1"]

[resource]
script = ExtResource("1_2bwv1")
name = "Iron"
