[gd_scene load_steps=3 format=3 uid="uid://d07osb1c2cm27"]

[ext_resource type="PackedScene" uid="uid://ctke47fu8pyrs" path="res://UI/ui_main_header_panel.tscn" id="1_4s8gm"]
[ext_resource type="PackedScene" uid="uid://caih1kl54wvyw" path="res://UI/ui_world/ui_world.tscn" id="2_lxmvj"]

[node name="main" type="Control"]
layout_mode = 3
anchors_preset = 15
anchor_right = 1.0
anchor_bottom = 1.0
grow_horizontal = 2
grow_vertical = 2

[node name="MainHeaderPanel" parent="." instance=ExtResource("1_4s8gm")]
layout_mode = 1

[node name="Control_UI_World" type="Control" parent="."]
layout_mode = 1
anchors_preset = 15
anchor_right = 1.0
anchor_bottom = 1.0
offset_top = 80.0
offset_bottom = -80.0
grow_horizontal = 2
grow_vertical = 2

[node name="UI_World" parent="Control_UI_World" instance=ExtResource("2_lxmvj")]
layout_mode = 1
anchor_bottom = 0.889286
offset_bottom = -3.05176e-05
grow_horizontal = 2
grow_vertical = 2
