[gd_scene load_steps=4 format=3 uid="uid://38djtsfq5gmu"]

[ext_resource type="Script" path="res://UI/ui_resource_stored/ui_resource_stored.gd" id="1_1yevf"]
[ext_resource type="LabelSettings" uid="uid://b2bfsgnks48y4" path="res://assets/label_settings/white_font_setting.tres" id="2_p5nkw"]

[sub_resource type="LabelSettings" id="LabelSettings_udewc"]

[node name="UI_Resource_Stored" type="Control"]
custom_minimum_size = Vector2(0, 40)
layout_mode = 3
anchor_right = 0.3
anchor_bottom = 0.0555556
grow_horizontal = 2
grow_vertical = 2
size_flags_horizontal = 3
script = ExtResource("1_1yevf")
metadata/_edit_use_anchors_ = true

[node name="Panel" type="Panel" parent="."]
layout_mode = 1
anchors_preset = 15
anchor_right = 1.0
anchor_bottom = 1.0
grow_horizontal = 2
grow_vertical = 2

[node name="Control" type="Control" parent="."]
layout_mode = 1
anchors_preset = 4
anchor_top = 0.5
anchor_bottom = 0.5
offset_top = -32.0
offset_right = 192.0
offset_bottom = 32.0
grow_vertical = 2

[node name="Label_Product_Name" type="Label" parent="Control"]
layout_mode = 1
anchors_preset = 15
anchor_right = 1.0
anchor_bottom = 1.0
grow_horizontal = 2
grow_vertical = 2
text = "[ Product Name ]"
label_settings = ExtResource("2_p5nkw")
horizontal_alignment = 1
vertical_alignment = 1

[node name="Control2" type="Control" parent="."]
layout_mode = 1
anchors_preset = 6
anchor_left = 1.0
anchor_top = 0.5
anchor_right = 1.0
anchor_bottom = 0.5
offset_left = -192.0
offset_top = -31.5
offset_bottom = 31.5
grow_horizontal = 0
grow_vertical = 2

[node name="Label_Product_Quantity" type="Label" parent="Control2"]
layout_mode = 1
anchors_preset = 15
anchor_right = 1.0
anchor_bottom = 1.0
grow_horizontal = 2
grow_vertical = 2
text = "[ Product Quantity ]"
label_settings = SubResource("LabelSettings_udewc")
horizontal_alignment = 1
vertical_alignment = 1
