[gd_resource type="Resource" script_class="producer_resource" load_steps=3 format=3 uid="uid://cfh118pm45xg4"]

[ext_resource type="Resource" uid="uid://cvv8qclpe7n07" path="res://resources/product_resource/wood.tres" id="1_32t5y"]
[ext_resource type="Script" path="res://resources/scripts/producer_resource.gd" id="1_ogsfo"]

[resource]
script = ExtResource("1_ogsfo")
name = "Loggin Camp"
product = ExtResource("1_32t5y")
producer_info = ""
worker_required = 5
resource_required_for_construction = Array[Resource("res://resources/scripts/product_resource.gd")]([])
resource_input = {}
resource_output = Array[Resource("res://resources/scripts/product_resource.gd")]([])
production_time = 15
total_output_quantity = 10
