[gd_scene load_steps=4 format=3 uid="uid://caih1kl54wvyw"]

[ext_resource type="PackedScene" uid="uid://lo608u0tn874" path="res://UI/ui_producer_list/ui_producer_list.tscn" id="1_505m3"]
[ext_resource type="PackedScene" uid="uid://r45uakspcuta" path="res://UI/ui_main_header/ui_main_header.tscn" id="1_n3quh"]
[ext_resource type="PackedScene" uid="uid://d2jbsef5nxivq" path="res://UI/ui_storage/ui_storage.tscn" id="2_7fgdl"]

[node name="UI_World" type="Control"]
layout_mode = 3
anchor_right = 1.0
anchor_bottom = 0.8
metadata/_edit_use_anchors_ = true

[node name="Control_UI_Main_Header" type="Control" parent="."]
layout_mode = 1
anchor_right = 1.0
anchor_bottom = 0.111111
metadata/_edit_use_anchors_ = true

[node name="ui_main_header" parent="Control_UI_Main_Header" instance=ExtResource("1_n3quh")]
layout_mode = 1
anchors_preset = 15
anchor_bottom = 1.0
offset_bottom = 0.0
grow_vertical = 2
metadata/_edit_use_anchors_ = true

[node name="Control_UI_Producer" type="Control" parent="."]
anchors_preset = 0
anchor_top = 0.111111
anchor_right = 0.65625
anchor_bottom = 1.0
metadata/_edit_use_anchors_ = true

[node name="Control" parent="Control_UI_Producer" instance=ExtResource("1_505m3")]
layout_mode = 1

[node name="Control_UI_Storage" type="Control" parent="."]
anchors_preset = 0
anchor_left = 0.65625
anchor_top = 0.111111
anchor_right = 1.0
anchor_bottom = 1.0
metadata/_edit_use_anchors_ = true

[node name="UI_Storage" parent="Control_UI_Storage" instance=ExtResource("2_7fgdl")]
layout_mode = 1
anchors_preset = 15
anchor_right = 1.0
anchor_bottom = 1.0
